Assignment 8
…
Do different types of animals have different outcomes of entering the shelter, and how do different kinds of animals have different abilities to adapt? Since we can investigate this problem from age and sex and different outcomes and give consumers information for what they want to breed.

Does classifcation of cats help them get better service? For example, we could classify different kinds of cat by ages. The cats with younger age could adopt much more quickly than adult cats, and younger cats could have more convenience service than others. For example like therapy

Import data into R

library(tidyverse)
mydata<-read.csv('aac_shelter_outcomes.csv')
mydata<-mydata[,1:12]

Tidy the data

mydata %>%group_by(animal_type,outcome_type)%>%count()

## # A tibble: 37 x 3
## # Groups: animal_type, outcome_type [37]
##    animal_type outcome_type        n
##    <fct>       <fct>           <int>
##  1 Bird        Adoption          111
##  2 Bird        Died                4
##  3 Bird        Disposal           22
##  4 Bird        Euthanasia         82
##  5 Bird        Missing             1
##  6 Bird        Relocate            7
##  7 Bird        Return to Owner     9
##  8 Bird        Transfer           76
##  9 Cat         ""                  2
## 10 Cat         Adoption        11621
## # ... with 27 more rows
…
From the analysis above, we find that Pit Bull Mix, Chihuahua Shorthair Mix and Labrador Retriever Mix are among the most breeds in the Austin Animal center.

Cats in Austin Animal shelter

For cats,

## # A tibble: 179 x 3
##    breed                    sex_upon_outcome  freq
##    <chr>                    <chr>            <int>
##  1 Domestic Medium Hair Mix Neutered Male      657
##  2 Domestic Shorthair Mix   Intact Female     3381
##  3 Domestic Shorthair Mix   Neutered Male     6109
##  4 Domestic Shorthair Mix   Unknown           2070
##  5 <NA>                     <NA>                NA
##  6 <NA>                     <NA>                NA
##  7 <NA>                     <NA>                NA
##  8 <NA>                     <NA>                NA
##  9 <NA>                     <NA>                NA
## 10 <NA>                     <NA>                NA
## # ... with 169 more rows
…
